DIAVAZEI AP DIAKOPTES ARI8MO KAI ANAVEI TOSA LED AP DE3IA OSA KAI O ARITHMOS



IN 10H

START:
	LDA 2000H
	ANI E0H
	RRC
	RRC
	RRC
	RRC
	RRC
	MOV B,A
	MVI C,01H
	MVI D,00H

LOUP1:
	MOV A,B
	CPI 00H
	JZ FIN
	DCR A
	MOV B,A
	MOV A,D
	RLC
	ORA C
	MOV D,A
	JMP LOUP1
	
FIN:
	MOV A,D
	CMA
	STA 3000H
	JMP START
END