org 0800h

jmp start

off:
    mvi a,00h
    cma
    sta 3000h

start:
mvi b,00h ; counter
lda 2000h
mvi c,08h

loop1:
      dcr c
      jz off
      inr b
      rrc
      jnc loop1

mvi a,08h
sub b
mov b,a

inr b
mvi a,00h

loop2:
      stc
      rar
      dcr b
      jnz loop2

cma 
sta 3000h

;--------------------------------
; Deutero erwthma

mov c,a

deutero:

keyboard_input:
               call kind
               mov b,a
               cpi 07h
               jz right
               jp keyboard_input
               mov a,b
               rrc
               jc right

left:
mov a,c
rlc
mov c,a
sta 3000h
jmp skip_right

right:                
mov a,c
rrc
mov c,a
sta 3000h
skip_right:


jmp deutero
;jmp start ; efoson exw thn kind to A1 erwthma den mporei
           ; na synexisei na einai synexous leitourgeias...
           ; vasika douleuei aplws prepei na allazw ta dip switch prin pathsw to plhrktro
           ; wste meta na diavasei ta dip switch
           ; vevaia etsi "xanetai" to apotelesma tou plhrkrtrou afou ola ginontai poly grhgora         
end