<?xml version="1.0" encoding="UTF-8"?>
<svg xmlns="http://www.w3.org/2000/svg" width="744.09448819" height="1052.3622047" id="exportedSVG" version="1.1" pencil:version="1.2.2" xmlns:pencil="http://www.evolus.vn/Namespace/Pencil" sodipodi:docname="my home page wireframe.ep" xmlns:sodipodi="http://sodipodi.sourceforge.net/DTD/sodipodi-0.dtd"><g inkscape:label="Final" xmlns:inkscape="http://www.inkscape.org/namespaces/inkscape" inkscape:groupmode="layer" id="layer_final"><g><rect x="0" y="0" width="1276" height="1276" fill="none"/><g pencil:type="Shape" pencil:def="Evolus.Sketchy.GUI:winframe" id="7143967857b64c61b7d46a06d6fe6552" transform="matrix(1,0,0,1,15.999998092651367,8)"><pencil:metadata><pencil:property name="box">1248.0000015683472,1783.9999995958058</pencil:property><pencil:property name="withMinButton">true</pencil:property><pencil:property name="withRestoreButton">true</pencil:property><pencil:property name="withCloseButton">true</pencil:property><pencil:property name="disabled">false</pencil:property><pencil:property name="fillColor">#FFFFFFFF</pencil:property><pencil:property name="strokeColor">#000000FF</pencil:property><pencil:property name="strokeStyle">1|</pencil:property><pencil:property name="textContent">Window Title</pencil:property><pencil:property name="textFont">'Comic Sans MS'|Bold|normal|12px|none</pencil:property><pencil:property name="textColor">#000000FF</pencil:property><pencil:property name="textAlign">0,1</pencil:property></pencil:metadata>
            <path style="fill: rgb(255, 255, 255); stroke: rgb(0, 0, 0); stroke-opacity: 1; stroke-width: 1; fill-opacity: 1;" pencil:name="body" id="8daeb061951f4db7bcf46d8cc9a08f68" d="M 0 0 C 416 0 832 0 1248.0000015683472 0 C 1249 595 1249 1189 1248.0000015683472 1783.9999995958058 C 832 1783 416 1783 0 1783.9999995958058 z"/>
            <path style="fill: rgb(222, 222, 222); stroke: rgb(0, 0, 0); stroke-opacity: 1; stroke-width: 1; fill-opacity: 1;" pencil:name="menu" id="e9cdbd79709d444eb826f2e0fcd2a3ad" d="M 0 0 C 416 0 832 0 1248.0000015683472 0 C 1248 9 1248 19 1248.0000015683472 28 C 832 27 416 27 0 28 z"/>
            <path style="fill: white; stroke: rgb(0, 0, 0); stroke-opacity: 1; stroke-width: 1;" pencil:name="button" id="ffd5d81047a04102ba11fe479f167bcf" d="M 1224.0000015683472 4 C 1231 4 1237 4 1244.0000015683472 4 C 1244 11 1244 17 1244.0000015683472 24 C 1237 24 1231 24 1224.0000015683472 24 z M 1228.0000015683472 8 C 1232 12 1236 16 1240.0000015683472 20 M 1240.0000015683472 8 C 1236 12 1232 16 1228.0000015683472 20 M 1200.0000015683472 4 C 1207 4 1213 4 1220.0000015683472 4 C 1220 11 1220 17 1220.0000015683472 24 C 1213 24 1207 24 1200.0000015683472 24 z M 1205.0000015683472 9 C 1208 9 1212 9 1215.0000015683472 9 C 1215 12 1215 16 1215.0000015683472 19 C 1212 19 1208 19 1205.0000015683472 19 z M 1176.0000015683472 4 C 1183 4 1189 4 1196.0000015683472 4 C 1196 11 1196 17 1196.0000015683472 24 C 1189 24 1183 24 1176.0000015683472 24 z M 1181.0000015683472 19 C 1184 19 1188 19 1191.0000015683472 19"/>
            <foreignObject x="10" y="6" width="1238" height="16" pencil:name="text" id="62baed2bd9fb4b4d972ca534ccd2a29a" style="font-family: 'Comic Sans MS'; font-size: 12px; font-weight: bold; font-style: normal; text-decoration: none; color: rgb(0, 0, 0); opacity: 1; text-align: left;"><div xmlns="http://www.w3.org/1999/xhtml">Window Title</div></foreignObject>
        </g><g pencil:type="Shape" pencil:def="Evolus.Sketchy.GUI:textbox" id="c366390c21244a029472f62c256dbbe6" transform="matrix(1,0,0,1,129.34375,247.12109375)"><pencil:metadata><pencil:property name="box">295.21484375,176.66015625</pencil:property><pencil:property name="disabled">false</pencil:property><pencil:property name="fillColor">#FFFFFFFF</pencil:property><pencil:property name="strokeColor">#000000FF</pencil:property><pencil:property name="strokeStyle">1|</pencil:property><pencil:property name="textContent">LOGO</pencil:property><pencil:property name="textFont">Comic Sans MS|bold|normal|20px|none</pencil:property><pencil:property name="textColor">#000000FF</pencil:property><pencil:property name="textAlign">1,1</pencil:property></pencil:metadata>
            <g pencil:name="rect" id="7cb9a22d6b0540a9a10a8284b55e0d5f" transform="translate(0.5,0.5)" style="fill: rgb(255, 255, 255); fill-opacity: 1; stroke: rgb(0, 0, 0); stroke-opacity: 1; stroke-width: 1;">
    			<path style="stroke-linejoin: round; stroke: rgb(0, 0, 0); stroke-opacity: 1; stroke-width: 1;" pencil:name="line1" id="9074d88bcbfd492ba2b4990ab9b4762a" transform="translate(0.5,0.5)" d="M 0 0 C 98 1 197 1 295.21484375 0 C 295 59 295 118 295.21484375 176.66015625 C 197 176 98 176 0 176.66015625 C -1 118 -1 59 0 0 z"/>
    		</g>
    		<text pencil:name="text" id="eb118d1635f5481da4086ee32e1f09f3" style="font-family: Comic Sans MS; font-size: 20px; font-weight: bold; font-style: normal; text-decoration: none; fill: rgb(0, 0, 0); fill-opacity: 1;" transform="translate(117,97)">LOGO</text>
        </g><g pencil:type="Shape" pencil:def="Evolus.Sketchy.GUI:textbox" id="164b9b88eda44504811e04cc728aab5d" transform="matrix(1,0,0,1,436.34375,247.12109375)"><pencil:metadata><pencil:property name="box">646.77734375,176.66015625</pencil:property><pencil:property name="disabled">false</pencil:property><pencil:property name="fillColor">#FFFFFFFF</pencil:property><pencil:property name="strokeColor">#000000FF</pencil:property><pencil:property name="strokeStyle">1|</pencil:property><pencil:property name="textContent">TITLE &amp; TAGLINE</pencil:property><pencil:property name="textFont">Comic Sans MS|bold|normal|20px|none</pencil:property><pencil:property name="textColor">#000000FF</pencil:property><pencil:property name="textAlign">1,1</pencil:property></pencil:metadata>
            <g pencil:name="rect" id="6ba9a7afa62f41378671f17c4d5054ad" transform="translate(0.5,0.5)" style="fill: rgb(255, 255, 255); fill-opacity: 1; stroke: rgb(0, 0, 0); stroke-opacity: 1; stroke-width: 1;">
    			<path style="stroke-linejoin: round; stroke: rgb(0, 0, 0); stroke-opacity: 1; stroke-width: 1;" pencil:name="line1" id="65b9077e64484ef49b50fd52a53b06db" transform="translate(0.5,0.5)" d="M 0 0 C 216 0 431 0 646.77734375 0 C 647 59 647 118 646.77734375 176.66015625 C 431 176 216 176 0 176.66015625 C -1 118 -1 59 0 0 z"/>
    		</g>
    		<text pencil:name="text" id="b100a3eb62d74db2a62bb640a26cf2ee" style="font-family: Comic Sans MS; font-size: 20px; font-weight: bold; font-style: normal; text-decoration: none; fill: rgb(0, 0, 0); fill-opacity: 1;" transform="translate(227,97)">TITLE &amp; TAGLINE</text>
        </g><g pencil:type="Shape" pencil:def="Evolus.Sketchy.GUI:textbox" id="4df43882e5ab4e1189abca63ab0f1d04" transform="matrix(1,0,0,1,127.34375,439.12109375)"><pencil:metadata><pencil:property name="box">956.15234375,62.59765625</pencil:property><pencil:property name="disabled">false</pencil:property><pencil:property name="fillColor">#FFFFFFFF</pencil:property><pencil:property name="strokeColor">#000000FF</pencil:property><pencil:property name="strokeStyle">1|</pencil:property><pencil:property name="textContent">MAIN MENU</pencil:property><pencil:property name="textFont">Comic Sans MS|bold|normal|20px|none</pencil:property><pencil:property name="textColor">#000000FF</pencil:property><pencil:property name="textAlign">1,1</pencil:property></pencil:metadata>
            <g pencil:name="rect" id="687784f5cc47434ea4925c6929839246" transform="translate(0.5,0.5)" style="fill: rgb(255, 255, 255); fill-opacity: 1; stroke: rgb(0, 0, 0); stroke-opacity: 1; stroke-width: 1;">
    			<path style="stroke-linejoin: round; stroke: rgb(0, 0, 0); stroke-opacity: 1; stroke-width: 1;" pencil:name="line1" id="94a968685188476d8368d686a7c1f7da" transform="translate(0.5,0.5)" d="M 0 0 C 319 -1 637 -1 956.15234375 0 C 957 21 957 42 956.15234375 62.59765625 C 637 63 319 63 0 62.59765625 C 0 42 0 21 0 0 z"/>
    		</g>
    		<text pencil:name="text" id="fcc62322875b4a33aaf0643ead6e1cfd" style="font-family: Comic Sans MS; font-size: 20px; font-weight: bold; font-style: normal; text-decoration: none; fill: rgb(0, 0, 0); fill-opacity: 1;" transform="translate(411,40)">MAIN MENU</text>
        </g><g pencil:type="Shape" pencil:def="Evolus.Sketchy.GUI:textbox" id="042f240b99554361992fb8b1ab4d67d6" transform="matrix(1,0,0,1,129.34375,517.12109375)"><pencil:metadata><pencil:property name="box">957.71484375,334.47265625</pencil:property><pencil:property name="disabled">false</pencil:property><pencil:property name="fillColor">#FFFFFFFF</pencil:property><pencil:property name="strokeColor">#000000FF</pencil:property><pencil:property name="strokeStyle">1|</pencil:property><pencil:property name="textContent">ΚΕΝΤΡΙΚΗ ΦΩΤΟ</pencil:property><pencil:property name="textFont">Comic Sans MS|bold|normal|20px|none</pencil:property><pencil:property name="textColor">#000000FF</pencil:property><pencil:property name="textAlign">1,1</pencil:property></pencil:metadata>
            <g pencil:name="rect" id="33570724c2b640ecb14a98998e540963" transform="translate(0.5,0.5)" style="fill: rgb(255, 255, 255); fill-opacity: 1; stroke: rgb(0, 0, 0); stroke-opacity: 1; stroke-width: 1;">
    			<path style="stroke-linejoin: round; stroke: rgb(0, 0, 0); stroke-opacity: 1; stroke-width: 1;" pencil:name="line1" id="448f9d19faad414fafdaf47aeeb7c9af" transform="translate(0.5,0.5)" d="M 0 0 C 319 1 638 1 957.71484375 0 C 958 111 958 223 957.71484375 334.47265625 C 638 334 319 334 0 334.47265625 C 2 223 2 111 0 0 z"/>
    		</g>
    		<text pencil:name="text" id="c0042745a9b64c6cba53f011f16a6fbe" style="font-family: Comic Sans MS; font-size: 20px; font-weight: bold; font-style: normal; text-decoration: none; fill: rgb(0, 0, 0); fill-opacity: 1;" transform="translate(388,176)">ΚΕΝΤΡΙΚΗ ΦΩΤΟ</text>
        </g><g pencil:type="Shape" pencil:def="Evolus.Sketchy.GUI:textbox" id="b51e75b06d59476aa40a832a90a133d5" transform="matrix(1,0,0,1,129.34375,871.12109375)"><pencil:metadata><pencil:property name="box">618.65234375,265.72265625</pencil:property><pencil:property name="disabled">false</pencil:property><pencil:property name="fillColor">#FFFFFFFF</pencil:property><pencil:property name="strokeColor">#000000FF</pencil:property><pencil:property name="strokeStyle">1|</pencil:property><pencil:property name="textContent">ΣΥΝΤΟΜΗ ΠΕΡΙΓΡΑΦΗ ΙΔΕΑΣ</pencil:property><pencil:property name="textFont">Comic Sans MS|bold|normal|20px|none</pencil:property><pencil:property name="textColor">#000000FF</pencil:property><pencil:property name="textAlign">1,1</pencil:property></pencil:metadata>
            <g pencil:name="rect" id="abbba1289c2b4aaa8103e6cbe357e5cf" transform="translate(0.5,0.5)" style="fill: rgb(255, 255, 255); fill-opacity: 1; stroke: rgb(0, 0, 0); stroke-opacity: 1; stroke-width: 1;">
    			<path style="stroke-linejoin: round; stroke: rgb(0, 0, 0); stroke-opacity: 1; stroke-width: 1;" pencil:name="line1" id="fd48bb4a30774dd8a1b5abb3b8db7d8b" transform="translate(0.5,0.5)" d="M 0 0 C 206 -1 412 -1 618.65234375 0 C 619 89 619 177 618.65234375 265.72265625 C 412 266 206 266 0 265.72265625 C 1 177 1 89 0 0 z"/>
    		</g>
    		<text pencil:name="text" id="134f15d5be11465f9af95bd168c08a5e" style="font-family: Comic Sans MS; font-size: 20px; font-weight: bold; font-style: normal; text-decoration: none; fill: rgb(0, 0, 0); fill-opacity: 1;" transform="translate(152,141)">ΣΥΝΤΟΜΗ ΠΕΡΙΓΡΑΦΗ ΙΔΕΑΣ</text>
        </g><g pencil:type="Shape" pencil:def="Evolus.Sketchy.GUI:textbox" id="eb88e2b208e74d67a134b7c8e08d83fb" transform="matrix(1,0,0,1,764.34375,870.12109375)"><pencil:metadata><pencil:property name="box">320.21484375,265.72265625</pencil:property><pencil:property name="disabled">false</pencil:property><pencil:property name="fillColor">#FFFFFFFF</pencil:property><pencil:property name="strokeColor">#000000FF</pencil:property><pencil:property name="strokeStyle">1|</pencil:property><pencil:property name="textContent">APP PHOTO 1</pencil:property><pencil:property name="textFont">Comic Sans MS|bold|normal|20px|none</pencil:property><pencil:property name="textColor">#000000FF</pencil:property><pencil:property name="textAlign">1,1</pencil:property></pencil:metadata>
            <g pencil:name="rect" id="298fa23167344e4d857169a2645a502b" transform="translate(0.5,0.5)" style="fill: rgb(255, 255, 255); fill-opacity: 1; stroke: rgb(0, 0, 0); stroke-opacity: 1; stroke-width: 1;">
    			<path style="stroke-linejoin: round; stroke: rgb(0, 0, 0); stroke-opacity: 1; stroke-width: 1;" pencil:name="line1" id="0fb5f266a8c946f8b2b243f47e6cbf6a" transform="translate(0.5,0.5)" d="M 0 0 C 107 -1 213 -1 320.21484375 0 C 320 89 320 177 320.21484375 265.72265625 C 213 265 107 265 0 265.72265625 C -1 177 -1 89 0 0 z"/>
    		</g>
    		<text pencil:name="text" id="da558c44753645c1ab295c73bf6eadbf" style="font-family: Comic Sans MS; font-size: 20px; font-weight: bold; font-style: normal; text-decoration: none; fill: rgb(0, 0, 0); fill-opacity: 1;" transform="translate(88,141)">APP PHOTO 1</text>
        </g><g pencil:type="Shape" pencil:def="Evolus.Sketchy.GUI:textbox" id="ba5543c0e2284f0892265a47290d5f92" transform="matrix(1,0,0,1,128.34375,1150.12109375)"><pencil:metadata><pencil:property name="box">303.6562509536743,257.8788833618164</pencil:property><pencil:property name="disabled">false</pencil:property><pencil:property name="fillColor">#FFFFFFFF</pencil:property><pencil:property name="strokeColor">#000000FF</pencil:property><pencil:property name="strokeStyle">1|</pencil:property><pencil:property name="textContent">USER STORY 1</pencil:property><pencil:property name="textFont">Comic Sans MS|bold|normal|20px|none</pencil:property><pencil:property name="textColor">#000000FF</pencil:property><pencil:property name="textAlign">1,1</pencil:property></pencil:metadata>
            <g pencil:name="rect" id="297b3ec01d7c444c9e6736fe2481c47b" transform="translate(0.5,0.5)" style="fill: rgb(255, 255, 255); fill-opacity: 1; stroke: rgb(0, 0, 0); stroke-opacity: 1; stroke-width: 1;">
    			<path style="stroke-linejoin: round; stroke: rgb(0, 0, 0); stroke-opacity: 1; stroke-width: 1;" pencil:name="line1" id="6dd4e6ba684845d69acf64e0791dfaae" transform="translate(0.5,0.5)" d="M 0 0 C 101 1 202 1 303.6562509536743 0 C 305 86 305 172 303.6562509536743 257.8788833618164 C 202 259 101 259 0 257.8788833618164 C -1 172 -1 86 0 0 z"/>
    		</g>
    		<text pencil:name="text" id="284279e790c14402a4b7aade4260eb91" style="font-family: Comic Sans MS; font-size: 20px; font-weight: bold; font-style: normal; text-decoration: none; fill: rgb(0, 0, 0); fill-opacity: 1;" transform="translate(73,138)">USER STORY 1</text>
        </g><g pencil:type="Shape" pencil:def="Evolus.Sketchy.GUI:textbox" id="da93d93d8eba4afcb5b40eca32bec74a" transform="matrix(1,0,0,1,448,1152.12109375)"><pencil:metadata><pencil:property name="box">300.9999923706054,257.8788833618164</pencil:property><pencil:property name="disabled">false</pencil:property><pencil:property name="fillColor">#FFFFFFFF</pencil:property><pencil:property name="strokeColor">#000000FF</pencil:property><pencil:property name="strokeStyle">1|</pencil:property><pencil:property name="textContent">USER STORY 1</pencil:property><pencil:property name="textFont">Comic Sans MS|bold|normal|20px|none</pencil:property><pencil:property name="textColor">#000000FF</pencil:property><pencil:property name="textAlign">1,1</pencil:property></pencil:metadata>
            <g pencil:name="rect" id="d6f2838701654317950a596b5cb3696f" transform="translate(0.5,0.5)" style="fill: rgb(255, 255, 255); fill-opacity: 1; stroke: rgb(0, 0, 0); stroke-opacity: 1; stroke-width: 1;">
    			<path style="stroke-linejoin: round; stroke: rgb(0, 0, 0); stroke-opacity: 1; stroke-width: 1;" pencil:name="line1" id="0c88f605c08042188b50eb264ededc65" transform="translate(0.5,0.5)" d="M 0 0 C 100 -1 201 -1 300.9999923706054 0 C 302 86 302 172 300.9999923706054 257.8788833618164 C 201 259 100 259 0 257.8788833618164 C -1 172 -1 86 0 0 z"/>
    		</g>
    		<text pencil:name="text" id="acb3ba0b45be47f6883163bcfb6ac716" style="font-family: Comic Sans MS; font-size: 20px; font-weight: bold; font-style: normal; text-decoration: none; fill: rgb(0, 0, 0); fill-opacity: 1;" transform="translate(72,138)">USER STORY 1</text>
        </g><g pencil:type="Shape" pencil:def="Evolus.Sketchy.GUI:textbox" id="1ef0f1bfb70a47d8a543c7d45db337b5" transform="matrix(1,0,0,1,761,1150.12109375)"><pencil:metadata><pencil:property name="box">320,257.8788833618164</pencil:property><pencil:property name="disabled">false</pencil:property><pencil:property name="fillColor">#FFFFFFFF</pencil:property><pencil:property name="strokeColor">#000000FF</pencil:property><pencil:property name="strokeStyle">1|</pencil:property><pencil:property name="textContent">APP PHOTO 2</pencil:property><pencil:property name="textFont">Comic Sans MS|bold|normal|20px|none</pencil:property><pencil:property name="textColor">#000000FF</pencil:property><pencil:property name="textAlign">1,1</pencil:property></pencil:metadata>
            <g pencil:name="rect" id="398282bce49e477d8cdb41acd2c1cab3" transform="translate(0.5,0.5)" style="fill: rgb(255, 255, 255); fill-opacity: 1; stroke: rgb(0, 0, 0); stroke-opacity: 1; stroke-width: 1;">
    			<path style="stroke-linejoin: round; stroke: rgb(0, 0, 0); stroke-opacity: 1; stroke-width: 1;" pencil:name="line1" id="4c610517ac404343a30bf595c84991bc" transform="translate(0.5,0.5)" d="M 0 0 C 107 1 213 1 320 0 C 321 86 321 172 320 257.8788833618164 C 213 259 107 259 0 257.8788833618164 C 1 172 1 86 0 0 z"/>
    		</g>
    		<text pencil:name="text" id="bf1afe356959421fbdf5bb086c422cf7" style="font-family: Comic Sans MS; font-size: 20px; font-weight: bold; font-style: normal; text-decoration: none; fill: rgb(0, 0, 0); fill-opacity: 1;" transform="translate(88,138)">APP PHOTO 2</text>
        </g><g pencil:type="Shape" pencil:def="Evolus.Sketchy.GUI:textbox" id="978a13fc6444484ebee6f579a3f20068" transform="matrix(1,0,0,1,125.34375,1421.12109375)"><pencil:metadata><pencil:property name="box">958.6562442779542,241.87894439697254</pencil:property><pencil:property name="disabled">false</pencil:property><pencil:property name="fillColor">#FFFFFFFF</pencil:property><pencil:property name="strokeColor">#000000FF</pencil:property><pencil:property name="strokeStyle">1|</pencil:property><pencil:property name="textContent">FOOTER</pencil:property><pencil:property name="textFont">Comic Sans MS|bold|normal|20px|none</pencil:property><pencil:property name="textColor">#000000FF</pencil:property><pencil:property name="textAlign">1,1</pencil:property></pencil:metadata>
            <g pencil:name="rect" id="d5fcd9f3424b4fcdb525c2a7ba8b2a1b" transform="translate(0.5,0.5)" style="fill: rgb(255, 255, 255); fill-opacity: 1; stroke: rgb(0, 0, 0); stroke-opacity: 1; stroke-width: 1;">
    			<path style="stroke-linejoin: round; stroke: rgb(0, 0, 0); stroke-opacity: 1; stroke-width: 1;" pencil:name="line1" id="f556d123b8b148d49a5b332c47735aab" transform="translate(0.5,0.5)" d="M 0 0 C 320 -1 639 -1 958.6562442779542 0 C 958 81 958 161 958.6562442779542 241.87894439697254 C 639 243 320 243 0 241.87894439697254 C 1 161 1 81 0 0 z"/>
    		</g>
    		<text pencil:name="text" id="bbb8b202dd074a95bbfd540990d02c4c" style="font-family: Comic Sans MS; font-size: 20px; font-weight: bold; font-style: normal; text-decoration: none; fill: rgb(0, 0, 0); fill-opacity: 1;" transform="translate(436,130)">FOOTER</text>
        </g><g pencil:type="Shape" pencil:def="Evolus.Sketchy.GUI:box" id="ef2fe211ae7643f7b275ba6221a8fa75" transform="matrix(1,0,0,1,24,96)"><pencil:metadata><pencil:property name="box">1232,80</pencil:property><pencil:property name="textPadding">61.6,5.333333333333333</pencil:property><pencil:property name="fillColor">#FFFFFFFF</pencil:property><pencil:property name="strokeColor">#000000FF</pencil:property><pencil:property name="strokeStyle">1|</pencil:property><pencil:property name="textContent"/><pencil:property name="textFont">'Comic Sans MS'|normal|normal|12px|none</pencil:property><pencil:property name="textColor">#000000FF</pencil:property><pencil:property name="textAlign">1,1</pencil:property></pencil:metadata>
            <path style="stroke-linejoin: round; fill: rgb(255, 255, 255); fill-opacity: 1; stroke: rgb(0, 0, 0); stroke-opacity: 1; stroke-width: 1;" pencil:name="line1" id="4c5a1d36a3734ddfb21eb7f1d7abc89d" transform="translate(0.5,0.5)" d="M 0 0 C 411 0 821 0 1232 0 C 1231 27 1231 53 1232 80 C 821 82 411 82 0 80 C 0 53 0 27 0 0 z"/>
            <text pencil:name="text" id="b5903c1654994fb89562d6ad858c0669" style="font-family: 'Comic Sans MS'; font-size: 12px; font-weight: normal; font-style: normal; text-decoration: none; fill: rgb(0, 0, 0); fill-opacity: 1;" transform="translate(616,40)"/>
        </g><g pencil:type="Shape" pencil:def="Evolus.Sketchy.GUI:textbox" id="4c15a29985bd487d801e11b1f4fdd262" transform="matrix(1,0,0,1,263,106)"><pencil:metadata><pencil:property name="box">921,54</pencil:property><pencil:property name="disabled">false</pencil:property><pencil:property name="fillColor">#FFFFFFFF</pencil:property><pencil:property name="strokeColor">#000000FF</pencil:property><pencil:property name="strokeStyle">1|</pencil:property><pencil:property name="textContent">URL BAR</pencil:property><pencil:property name="textFont">'Comic Sans MS'|normal|normal|12px|none</pencil:property><pencil:property name="textColor">#000000FF</pencil:property><pencil:property name="textAlign">0,1</pencil:property></pencil:metadata>
            <g pencil:name="rect" id="0ddc42cb479c42648bbe4dc23fabbb32" transform="translate(0.5,0.5)" style="fill: rgb(255, 255, 255); fill-opacity: 1; stroke: rgb(0, 0, 0); stroke-opacity: 1; stroke-width: 1;">
    			<path style="stroke-linejoin: round; stroke: rgb(0, 0, 0); stroke-opacity: 1; stroke-width: 1;" pencil:name="line1" id="9feb91380fb645e2912ba65e312a8c1f" transform="translate(0.5,0.5)" d="M 0 0 C 307 1 614 1 921 0 C 921 18 921 36 921 54 C 614 55 307 55 0 54 C 0 36 0 18 0 0 z"/>
    		</g>
    		<text pencil:name="text" id="8ca2338aeedb4ee484bc601fbb65ad22" style="font-family: 'Comic Sans MS'; font-size: 12px; font-weight: normal; font-style: normal; text-decoration: none; fill: rgb(0, 0, 0); fill-opacity: 1;" transform="translate(6,32)">URL BAR</text>
        </g><g pencil:type="Shape" pencil:def="Evolus.Sketchy.GUI:SketchyCircle" id="1473baa4ac7f4f4db2f6c0fe9966794d" transform="matrix(1,0,0,1,114,107)"><pencil:metadata><pencil:property name="box">52,52</pencil:property><pencil:property name="fillColor">#FFFFFFFF</pencil:property><pencil:property name="strokeColor">#000000FF</pencil:property><pencil:property name="strokeStyle">1|</pencil:property><pencil:property name="textContent">&lt;br /&gt;</pencil:property><pencil:property name="textFont">'Comic Sans MS'|normal|normal|12px|none</pencil:property><pencil:property name="textColor">#000000FF</pencil:property><pencil:property name="textAlign">1,1</pencil:property></pencil:metadata>
            <g pencil:name="rect" id="4eff3e9617774fda835a99129b664863" style="stroke: rgb(0, 0, 0); stroke-opacity: 1; stroke-width: 2.88462;">
                <path d="m 148.93503,74.635904 c 2.07604,15.97711 -3.99359,28.155016 -12.17212,41.296436 -8.00312,7.27769 -15.17355,16.63311 -24.26107,22.67939 -5.86352,3.13543 -12.49769,5.62895 -19.923889,7.40646 -12.971585,3.3196 -25.996188,3.94023 -38.785696,-0.25407 -7.352001,-2.7067 -14.206711,-6.89127 -20.854109,-11.52417 C 28.608357,131.2223 24.511688,127.84112 20.7864,124.12014 15.856113,112.8313 6.2318574,103.42492 2.2802477,91.727478 -0.26356072,80.409296 1.3268354,68.866237 4.0467287,57.74996 5.4891813,52.26114 6.0420175,44.867346 8.3718156,39.826256 24.480188,17.781301 27.889706,7.3989933 54.438678,1.3290745 72.708305,1.5956602 97.298669,2.9991824 113.67008,11.622241 c 11.67504,7.939259 20.28065,18.798517 26.52343,31.311835 2.56943,10.545458 7.79835,20.823863 8.74152,31.701828 z" style="fill: rgb(255, 255, 255); fill-opacity: 1; stroke-miterlimit: 4; stroke-linejoin: round;" pencil:name="line1" id="b8c8004c0e80408cb734ef09f85ea48f" transform="scale(0.3466666666666667,0.3466666666666667)"/>
            </g>
            <foreignObject x="0" y="18" width="52" height="17" pencil:name="text" id="9128c9dfdea440d398d39c5b7793a769" style="font-family: 'Comic Sans MS'; font-size: 12px; font-weight: normal; font-style: normal; text-decoration: none; fill: rgb(0, 0, 0); fill-opacity: 1; color: rgb(0, 0, 0); opacity: 1; text-align: center;"><div xmlns="http://www.w3.org/1999/xhtml"><br /></div></foreignObject>
        </g><g pencil:type="Shape" pencil:def="Evolus.Sketchy.GUI:SketchyCircle" id="eede1982e8a94ce1af656997820ab3e0" transform="matrix(1,0,0,1,48,107)"><pencil:metadata><pencil:property name="box">52,52</pencil:property><pencil:property name="fillColor">#FFFFFFFF</pencil:property><pencil:property name="strokeColor">#000000FF</pencil:property><pencil:property name="strokeStyle">1|</pencil:property><pencil:property name="textContent">&lt;br /&gt;</pencil:property><pencil:property name="textFont">'Comic Sans MS'|normal|normal|12px|none</pencil:property><pencil:property name="textColor">#000000FF</pencil:property><pencil:property name="textAlign">1,1</pencil:property></pencil:metadata>
            <g pencil:name="rect" id="0a2501dc97624e179751231b26552682" style="stroke: rgb(0, 0, 0); stroke-opacity: 1; stroke-width: 2.88462;">
                <path d="m 148.93503,74.635904 c 2.07604,15.97711 -3.99359,28.155016 -12.17212,41.296436 -8.00312,7.27769 -15.17355,16.63311 -24.26107,22.67939 -5.86352,3.13543 -12.49769,5.62895 -19.923889,7.40646 -12.971585,3.3196 -25.996188,3.94023 -38.785696,-0.25407 -7.352001,-2.7067 -14.206711,-6.89127 -20.854109,-11.52417 C 28.608357,131.2223 24.511688,127.84112 20.7864,124.12014 15.856113,112.8313 6.2318574,103.42492 2.2802477,91.727478 -0.26356072,80.409296 1.3268354,68.866237 4.0467287,57.74996 5.4891813,52.26114 6.0420175,44.867346 8.3718156,39.826256 24.480188,17.781301 27.889706,7.3989933 54.438678,1.3290745 72.708305,1.5956602 97.298669,2.9991824 113.67008,11.622241 c 11.67504,7.939259 20.28065,18.798517 26.52343,31.311835 2.56943,10.545458 7.79835,20.823863 8.74152,31.701828 z" style="fill: rgb(255, 255, 255); fill-opacity: 1; stroke-miterlimit: 4; stroke-linejoin: round;" pencil:name="line1" id="ad2ea01deed44f7ba9d2ba011d0fb334" transform="scale(0.3466666666666667,0.3466666666666667)"/>
            </g>
            <foreignObject x="0" y="18" width="52" height="17" pencil:name="text" id="907869186d6e4b768c6fbc41ba0b2040" style="font-family: 'Comic Sans MS'; font-size: 12px; font-weight: normal; font-style: normal; text-decoration: none; fill: rgb(0, 0, 0); fill-opacity: 1; color: rgb(0, 0, 0); opacity: 1; text-align: center;"><div xmlns="http://www.w3.org/1999/xhtml"><br /></div></foreignObject>
        </g><g pencil:type="Shape" pencil:def="Evolus.Sketchy.GUI:SketchyCircle" id="18e3dc96a0b34a769c8d588b691c705a" transform="matrix(1,0,0,1,183,107)"><pencil:metadata><pencil:property name="box">52,52</pencil:property><pencil:property name="fillColor">#FFFFFFFF</pencil:property><pencil:property name="strokeColor">#000000FF</pencil:property><pencil:property name="strokeStyle">1|</pencil:property><pencil:property name="textContent">&lt;br /&gt;</pencil:property><pencil:property name="textFont">'Comic Sans MS'|normal|normal|12px|none</pencil:property><pencil:property name="textColor">#000000FF</pencil:property><pencil:property name="textAlign">1,1</pencil:property></pencil:metadata>
            <g pencil:name="rect" id="c811291f97be46e18d8abb5f7217922d" style="stroke: rgb(0, 0, 0); stroke-opacity: 1; stroke-width: 2.88462;">
                <path d="m 148.93503,74.635904 c 2.07604,15.97711 -3.99359,28.155016 -12.17212,41.296436 -8.00312,7.27769 -15.17355,16.63311 -24.26107,22.67939 -5.86352,3.13543 -12.49769,5.62895 -19.923889,7.40646 -12.971585,3.3196 -25.996188,3.94023 -38.785696,-0.25407 -7.352001,-2.7067 -14.206711,-6.89127 -20.854109,-11.52417 C 28.608357,131.2223 24.511688,127.84112 20.7864,124.12014 15.856113,112.8313 6.2318574,103.42492 2.2802477,91.727478 -0.26356072,80.409296 1.3268354,68.866237 4.0467287,57.74996 5.4891813,52.26114 6.0420175,44.867346 8.3718156,39.826256 24.480188,17.781301 27.889706,7.3989933 54.438678,1.3290745 72.708305,1.5956602 97.298669,2.9991824 113.67008,11.622241 c 11.67504,7.939259 20.28065,18.798517 26.52343,31.311835 2.56943,10.545458 7.79835,20.823863 8.74152,31.701828 z" style="fill: rgb(255, 255, 255); fill-opacity: 1; stroke-miterlimit: 4; stroke-linejoin: round;" pencil:name="line1" id="3b27564f45714f91b4b879b734566a00" transform="scale(0.3466666666666667,0.3466666666666667)"/>
            </g>
            <foreignObject x="0" y="18" width="52" height="17" pencil:name="text" id="f7bba7e352ef4b44a404e8d6f104f4f7" style="font-family: 'Comic Sans MS'; font-size: 12px; font-weight: normal; font-style: normal; text-decoration: none; fill: rgb(0, 0, 0); fill-opacity: 1; color: rgb(0, 0, 0); opacity: 1; text-align: center;"><div xmlns="http://www.w3.org/1999/xhtml"><br /></div></foreignObject>
        </g></g></g></svg>