DIAVAZEI DIAKOPTES KAI STH 8ESH TOUS VAZEI STA 7SEGMENTS PAVLES
DIAVAZEI AP PLHKTROLOGIO ARI8MO KAI TON APEIKONIZEI ST 7SEGMENT PROS8ETWNTAS KAI PROHGOUMENO
DUNATOTHTA SWITCH ME FETCH PC




IN 10H

START:
	JMP SEC
	LDA 2000H
	ANI FCH
	RRC
	RRC
	MVI B,00H
	STA 0900H
	STA 0901H
	MVI C,01H
	MVI D,00H
	LXI H,0910H

LOUP1:
	LDA 0901H
	ANA C
	CPI 00H
	JZ K_PAVLA
	JMP A_PAVLA
CON1:
	INX H
	INR D
	MOV A,D
	CPI 07H
	JZ FIN
	LDA 0901H
	RRC
	STA 0901H
	JMP LOUP1

K_PAVLA:
	MVI A,17H
	MOV M,A
	JMP CON1
A_PAVLA:
	MVI A,1CH
	MOV M,A
	JMP CON1

FIN:
	LXI D,0910H
	CALL STDM
	CALL DCD
	JMP START



SEC:
	LDA 0930H
	MOV B,A
	CALL KIND
	CPI 85H
	JZ SWITCH
	ADD B
	ANI 0FH

CON:
	STA 0930H
	STA 0920H
	LXI D,0920H
	CALL STDM
	CALL DCD
	LDA 0930H
	JMP START
SWITCH:
	LDA 0920H
	MOV B,A
	LDA 0925H
	STA 0920H
	MOV A,B
	STA 0925H
	
	LXI D,0920H
	CALL STDM
	CALL DCD	
	JMP START
END